State (Emission order)	H3K4me3	H3K27ac	H3K4me1	H3K27me3	H3K36me3	H3K9me3
1	6.103822735753888E-4	4.8728895150972073E-4	0.0018818925574762774	0.004058422939228023	0.00217901679503375	0.004878755853597142
2	0.011835493178344822	0.3717712048432201	0.6705943522324532	0.016931570870135013	0.002837272835203041	0.001660315444507059
3	0.8712902959947006	0.9150295584733776	0.29813558654850314	0.00789882789384395	1.1695121164749592E-85	1.4931968288664067E-85
