State (Emission order)	H3K9me3	H3K36me3	H3K4me3	H3K27ac	H3K4me1	H3K27me3
1	1.8820872980821606E-253	2.2641008643359808E-247	0.8938047384833403	0.9926266853100723	0.2569204152841782	0.0021610163676695723
2	3.5415728015654296E-20	6.666914493694138E-4	0.0020791389092670986	0.4308027943372951	0.1053587613774937	0.002848566005697763
3	3.316364657148244E-4	0.0011773645576084579	0.00775133374078116	0.9318601082193736	0.9008524965579627	0.006678692891463983
4	6.996369106030308E-5	0.0016058316432054347	6.41292312916711E-4	0.02514176101396458	0.5701493631963308	5.051364502703359E-30
5	0.0566002649444661	0.052338381143333855	0.5922969816516039	0.18135371250653987	0.6677861725616796	0.13795969369020125
6	0.0028779246128074858	3.616518117158003E-49	0.004633892545373487	0.012900484904331174	0.294860780877343	0.4186585450975242
7	0.0023033904530177737	0.002110327917460858	4.955194171184928E-4	2.3230577516270137E-4	7.929091268063221E-4	0.002996450538543269
8	0.11888384969268277	0.005552035833585547	0.0041039234630441835	7.511425997077558E-95	0.0014225008072899273	0.03130546375632234
